<svg width="41" height="24" viewBox="0 0 41 24" fill="none" xmlns="http://www.w3.org/2000/svg">
    <line y1="22" x2="41" y2="22" stroke="black" stroke-width="4"/>
    <line y1="12" x2="41" y2="12" stroke="black" stroke-width="4"/>
    <line y1="2" x2="41" y2="2" stroke="black" stroke-width="4"/>
</svg>
